wokwi-logic.vcd
$version Generated by Wokwi.com $end
$date Sun, 05 May 2024 16:45:44 GMT $end
$timescale 1ns $end
$scope module logic $end
$var wire 1 ! D0 $end
$upscope $end
$enddefinitions $end
#0
0!
#1257202963
1!
#1257691175
0!
#1277200400
1!
#1277688575
0!
#1297200500
1!
#1297688725
0!
#1317200425
1!
#1317688713
0!
#1337200400
1!
#1337688700
0!
#1357200388
1!
#1357688750
0!
#1377200513
1!
#1377688738
0!
#1397200500
1!
#1397688725
0!
#1417200488
1!
#1417688713
0!
#1437200475
1!
#1437688700
0!
#1457200463
1!
#1457688688
0!
#1477200450
1!
#1477688675
0!
#1497200438
1!
#1497688663
0!
#1517200425
1!
#1517688788
0!
#1537200413
1!
#1537688775
0!
#1557200400
1!
#1557688763
0!
#1577200388
1!
#1577688750
0!
#1597200513
1!
#1597688738
0!
#1617200500
1!
#1617688725
0!
#1637200488
1!
#1637688713
0!
#1657200475
1!
#1657688700
0!
#1677200463
1!
#1677688688
0!
#1697200450
1!
#1697688675
0!
#1717200438
1!
#1717688663
0!
#1737200425
1!
#1737688788
0!
#1757200413
1!
#1757688775
0!
#1777200400
1!
#1777688763
0!
#1797200388
1!
#1797688750
0!
#1817200513
1!
#1817688738
0!
#1837200500
1!
#1837688725
0!
#1857200488
1!
#1857688713
0!
#1877200475
1!
#1877688700
0!
#1897200463
1!
#1897688688
0!
#1917200450
1!
#1917688675
0!
#1937200438
1!
#1937688663
0!
#1957200425
1!
#1957688788
0!
#1977200413
1!
#1977688775
0!
#1997200400
1!
#1997688763
0!
#2017200388
1!
#2017688750
0!
#2037200513
1!
#2037688738
0!
#2057200500
1!
#2057688725
0!
#2077200487
1!
#2077688713
0!
#2097200475
1!
#2097688700
0!
#2117200463
1!
#2117688687
0!
#2137200450
1!
#2137688675
0!
#2157200438
1!
#2157688663
0!
#2177200425
1!
#2177688788
0!
#2197200413
1!
#2197688775
0!
#2217200400
1!
#2217688763
0!
#2237200388
1!
#2237688750
0!
#2257200513
1!
#2257688738
0!
#2277200500
1!
#2277688725
0!
#2297200488
1!
#2297688713
0!
#2317200475
1!
#2317688700
0!
#2337200463
1!
#2337688688
0!
#2357200450
1!
#2357688675
0!
#2377200438
1!
#2377688663
0!
#2397200313
1!
#2397688713
0!
#2417200438
1!
#2417688638
0!
#2437200400
1!
#2437688625
0!
#2457200388
1!
#2457688688
0!
#2477200388
1!
#2477688638
0!
#2497200288
1!
#2497688613
0!
#2517200300
1!
#2517688613
0!
#2537200438
1!
#2537688650
0!
#2557200288
1!
#2557688625
0!
#2577200325
1!
#2577688538
0!
#2597200350
1!
#2597688738
0!
#2617200438
1!
#2617688675
0!
#2637200413
1!
#2637688663
0!
#2657200388
1!
#2657688763
0!
#2677200513
1!
#2677688750
0!
#2697200500
1!
#2697688738
0!
#2717200488
1!
#2717688725
0!
#2737200475
1!
#2737688713
0!
#2757200463
1!
#2757688700
0!
#2777200450
1!
#2777688688
0!
#2797200438
1!
#2797688675
0!
#2817200425
1!
#2817688663
0!
#2837200413
1!
#2837688788
0!
#2857200400
1!
#2857688775
0!
#2877200350
1!
#2877688663
0!
#2897200450
1!
#2897688763
0!
#2917200438
1!
#2917688750
0!
#2937200425
1!
#2937688613
0!
#2957200300
1!
#2957688763
0!
#2977200388
1!
#2977688750
0!
#2997200513
1!
#2997688738
0!
#3017200500
1!
#3017688725
0!
#3037200488
1!
#3037688713
0!
#3057200475
1!
#3057688700
0!
#3077200463
1!
#3077688688
0!
#3097200450
1!
#3097688675
0!
#3117200438
1!
#3117688663
0!
#3137200425
1!
#3137688788
0!
#3157200388
1!
#3157688650
0!
#3177200463
1!
#3177688750
0!
#3197200450
1!
#3197688738
0!
#3217200438
1!
#3217688725
0!
#3237200350
1!
#3237688663
0!
#3257200450
1!
#3257688763
0!
#3277200438
1!
#3277688750
0!
#3297200425
1!
#3297688738
0!
#3317200300
1!
#3317688663
0!
#3337200388
1!
#3337688788
0!
#3357200513
1!
#3357688775
0!
#3377200500
1!
#3377688763
0!
#3397200488
1!
#3397688750
0!
#3417200475
1!
#3417688738
0!
#3437200463
1!
#3437688725
0!
#3457200450
1!
#3457688713
0!
#3477200438
1!
#3477688700
0!
#3497200425
1!
#3497688688
0!
#3517200413
1!
#3517688675
0!
#3537200400
1!
#3537688663
0!
#3557200388
1!
#3557688788
0!
#3577200513
1!
#3577688775
0!
#3597200388
1!
#3597688700
0!
#3617200488
1!
#3617688675
0!
#3637200475
1!
#3637688663
0!
#3657200463
1!
#3657688788
0!
#3677200450
1!
#3677688775
0!
#3697200438
1!
#3697688763
0!
#3717200425
1!
#3717688750
0!
#3737200413
1!
#3737688738
0!
#3757200400
1!
#3757688725
0!
#3777200388
1!
#3777688713
0!
#3797200513
1!
#3797688700
0!
#3817200500
1!
#3817688688
0!
#3837200488
1!
#3837688675
0!
#3857200475
1!
#3857688663
0!
#3877200463
1!
#3877688788
0!
#3897200450
1!
#3897688775
0!
#3917200438
1!
#3917688763
0!
#3937200425
1!
#3937688750
0!
#3957200388
1!
#3957688700
0!
#3977200488
1!
#3977688675
0!
#3997200475
1!
#3997688663
0!
#4017200463
1!
#4017688713
0!
#4037200388
1!
#4037688663
0!
#4057200475
1!
#4057688788
0!
#4077200462
1!
#4077688775
0!
#4097200450
1!
#4097688763
0!
#4117200438
1!
#4117688750
0!
#4137200425
1!
#4137688738
0!
#4157200413
1!
#4157688725
0!
#4177200400
1!
#4177688713
0!
#4197200387
1!
#4197688700
0!
#4217200513
1!
#4217688688
0!
#4237200500
1!
#4237688675
0!
#4257200487
1!
#4257688662
0!
#4277200475
1!
#4277688788
0!
#4297200463
1!
#4297688775
0!
#4317200388
1!
#4317688700
0!
#4337200488
1!
#4337688675
0!
#4357200475
1!
#4357688663
0!
#4377200463
1!
#4377688788
0!
#4397200425
1!
#4397688700
0!
#4417200388
1!
#4417688688
0!
#4437200513
1!
#4437688675
0!
#4457200500
1!
#4457688663
0!
#4477200488
1!
#4477688788
0!
#4497200475
1!
#4497688738
0!
#4517200575
1!
#4517688663
0!
#4537200425
1!
#4537688788
0!
#4557200413
1!
#4557688775
0!
#4577200400
1!
#4577688763
0!
#4597200388
1!
#4597688750
0!
#4617200388
1!
#4617688738
0!
#4637200463
1!
#4637688725
0!
#4657200450
1!
#4657688713
0!
#4677200438
1!
#4677688700
0!
#4697200425
1!
#4697688688
0!
#4717200413
1!
#4717688675
0!
#4737200400
1!
#4737688663
0!
#4757200388
1!
#4757688788
0!
#4777200513
1!
#4777688775
0!
#4797200500
1!
#4797688763
0!
#4817200488
1!
#4817688750
0!
#4837200475
1!
#4837688738
0!
#4857200463
1!
#4857688725
0!
#4877200450
1!
#4877688713
0!
#4897200438
1!
#4897688700
0!
#4917200425
1!
#4917688688
0!
#4937200413
1!
#4937688675
0!
#4957200400
1!
#4957688663
0!
#4977200388
1!
#4977688788
0!
#4997200513
1!
#4997688775
0!
#5017200500
1!
#5017688763
0!
#5037200488
1!
#5037688750
0!
#5057200475
1!
#5057688738
0!
#5077200463
1!
#5077688725
0!
#5097200450
1!
#5097688713
0!
#5117200438
1!
#5117688700
0!
#5137200425
1!
#5137688688
0!
#5157200413
1!
#5157688675
0!
#5177200400
1!
#5177688663
0!
#5197200388
1!
#5197688788
0!
#5217200513
1!
#5217688775
0!
#5237200500
1!
#5237688763
0!
#5257200488
1!
#5257688750
0!
#5277200475
1!
#5277688738
0!
#5297200463
1!
#5297688725
0!
#5317200450
1!
#5317688713
0!
#5337200438
1!
#5337688700
0!
#5357200425
1!
#5357688688
0!
#5377200413
1!
#5377688675
0!
#5397200400
1!
#5397688663
0!
#5417200388
1!
#5417688788
0!
#5437200513
1!
#5437688775
0!
#5457200500
1!
#5457688763
0!
#5477200488
1!
#5477688750
0!
#5497200475
1!
#5497688738
0!
#5517200463
1!
#5517688725
0!
#5537200450
1!
#5537688713
0!
#5557200438
1!
#5557688700
0!
#5577200425
1!
#5577688688
0!
#5597200413
1!
#5597688675
0!
#5617200400
1!
#5617688663
0!
#5637200388
1!
#5637688788
0!
#5657200513
1!
#5657688775
0!
#5677200500
1!
#5677688763
0!
#5697200488
1!
#5697688750
0!
#5717200475
1!
#5717688738
0!
#5737200463
1!
#5737688725
0!
#5757200450
1!
#5757688713
0!
#5777200438
1!
#5777688700
0!
#5797200425
1!
#5797688688
0!
#5817200413
1!
#5817688675
0!
#5837200400
1!
#5837688663
0!
#5857200388
1!
#5857688788
0!
#5877200513
1!
#5877688775
0!
#5897200500
1!
#5897688763
0!
#5917200488
1!
#5917688750
0!
#5937200475
1!
#5937688738
0!
#5957200463
1!
#5957688725
0!
#5977200450
1!
#5977688713
0!
#5997200438
1!
#5997688700
0!
#6017200425
1!
#6017688688
0!
#6037200413
1!
#6037688675
0!
#6057200400
1!
#6057688663
0!
#6077200388
1!
#6077688788
0!
#6097200513
1!
#6097688775
0!
#6117200500
1!
#6117688763
0!
#6137200488
1!
#6137688750
0!
#6157200475
1!
#6157688738
0!
#6177200463
1!
#6177688725
0!
#6197200450
1!
#6197688713
0!
#6217200438
1!
#6217688700
0!
#6237200425
1!
#6237688688
0!
#6257200413
1!
#6257688675
0!
#6277200400
1!
#6277688663
0!
#6297200388
1!
#6297688788
0!
#6317200513
1!
#6317688775
0!
#6337200500
1!
#6337688763
0!
#6357200488
1!
#6357688750
0!
#6377200475
1!
#6377688738
0!
#6397200463
1!
#6397688725
0!
#6417200450
1!
#6417688713
0!
#6437200438
1!
#6437688700
0!
#6457200425
1!
#6457688688
0!
#6477200413
1!
#6477688675
0!
#6497200400
1!
#6497688663
0!
#6517200388
1!
#6517688788
0!
#6537200388
1!
#6537688700
0!
#6557200488
1!
#6557688675
0!
#6577200475
1!
#6577688663
0!
#6597200463
1!
#6597688788
0!
#6617200450
1!
#6617688775
0!
#6637200438
1!
#6637688763
0!
#6649158838
1!
#6651062538
0!
#6652974263
1!
#6654878513
0!
#6656790238
1!
#6658694488
0!
#6660606213
1!
#6662510463
0!
#6664422188
1!
#6666326438
0!
#6668238163
1!
#6670142438
0!
#6672054275
1!
#6673958550
0!
#6675870250
1!
#6677774525
0!
#6679686225
1!
#6681590500
0!
#6683502200
1!
#6685406475
0!
#6687318175
1!
#6689222450
0!
#6691134288
1!
#6693038425
0!
#6694950263
1!
#6696854538
0!
#6698766238
1!
#6700670500
0!
#6702582213
1!
#6704486525
0!
#6706398188
1!
#6708302450
0!
#6710214163
1!
#6712118475
0!
#6714030275
1!
#6715934450
0!
#6717846250
1!
#6719750425
0!
#6721662225
1!
#6723566538
0!
#6725478200
1!
#6727382513
0!
#6729294163
1!
#6731198488
0!
#6733110188
1!
#6735014463
0!
#6736926163
1!
#6738830438
0!
#6740742275
1!
#6742646550
0!
#6744558250
1!
#6745487563
0!
#6748959063
1!
#6750655575
0!
#6752358863
1!
#6754055675
0!
#6755758913
1!
#6757455638
0!
#6759159013
1!
#6760855600
0!
#6762558975
1!
#6764255700
0!
#6765958938
1!
#6767655663
0!
#6769358863
1!
#6771055625
0!
#6772758913
1!
#6774455588
0!
#6776159013
1!
#6777855688
0!
#6779558975
1!
#6781255650
0!
#6782958938
1!
#6784655613
0!
#6786358863
1!
#6788055575
0!
#6789758913
1!
#6791455675
0!
#6793159013
1!
#6794855638
0!
#6796558975
1!
#6798255600
0!
#6799958938
1!
#6801655700
0!
#6803358863
1!
#6805055663
0!
#6806758913
1!
#6808455625
0!
#6810159013
1!
#6811855588
0!
#6813558975
1!
#6815255688
0!
#6816958938
1!
#6818655650
0!
#6820358863
1!
#6822055613
0!
#6823758913
1!
#6825455575
0!
#6827159013
1!
#6828855675
0!
#6830558975
1!
#6832255638
0!
#6833958938
1!
#6835655600
0!
#6837358863
1!
#6839055700
0!
#6840758913
1!
#6842455663
0!
#6844159013
1!
#6845487563
0!
#6848591338
1!
#6850104150
0!
#6851623113
1!
#6853136200
0!
#6854655163
1!
#6856168113
0!
#6857687075
1!
#6859200163
0!
#6860719125
1!
#6862232213
0!
#6863751175
1!
#6865264075
0!
#6866783088
1!
#6868296038
0!
#6869815138
1!
#6871328113
0!
#6872847188
1!
#6874360113
0!
#6875879100
1!
#6877392150
0!
#6878911150
1!
#6880424200
0!
#6881943200
1!
#6883456113
0!
#6884975113
1!
#6886488163
0!
#6888007163
1!
#6889520213
0!
#6891039075
1!
#6892552125
0!
#6894071125
1!
#6895584175
0!
#6897103175
1!
#6898616225
0!
#6900135025
1!
#6901648138
0!
#6903167188
1!
#6904680188
0!
#6906199100
1!
#6907712238
0!
#6909231150
1!
#6910744150
0!
#6912263075
1!
#6913776200
0!
#6915295038
1!
#6916808113
0!
#6918327075
1!
#6919840163
0!
#6921359113
1!
#6922872213
0!
#6924391150
1!
#6925904125
0!
#6927423200
1!
#6928936175
0!
#6930455113
1!
#6931968225
0!
#6933487163
1!
#6935000138
0!
#6936519075
1!
#6938032188
0!
#6939551125
1!
#6941064238
0!
#6942583175
1!
#6944096150
0!
#6948424988
1!
#6949852475
0!
#6951287150
1!
#6952716413
0!
#6954151150
1!
#6955580488
0!
#6957015225
1!
#6958444425
0!
#6959879163
1!
#6961308363
0!
#6962743238
1!
#6964172438
0!
#6965607175
1!
#6967036375
0!
#6968471250
1!
#6969900450
0!
#6971335113
1!
#6972764388
0!
#6974199188
1!
#6975628463
0!
#6977063263
1!
#6978492400
0!
#6979927200
1!
#6981356363
0!
#6982791275
1!
#6984220438
0!
#6985655213
1!
#6987084375
0!
#6988519150
1!
#6989948450
0!
#6991383225
1!
#6992812388
0!
#6994247163
1!
#6995676463
0!
#6997111238
1!
#6998540400
0!
#6999975175
1!
#7001404475
0!
#7002839250
1!
#7004268325
0!
#7005703188
1!
#7007132400
0!
#7008567263
1!
#7009996475
0!
#7011431200
1!
#7012860413
0!
#7014295163
1!
#7015724488
0!
#7017159238
1!
#7018588425
0!
#7020023175
1!
#7021452363
0!
#7022887250
1!
#7024316438
0!
#7025751188
1!
#7027180375
0!
#7028615263
1!
#7030044450
0!
#7031479200
1!
#7032908388
0!
#7034343213
1!
#7035772463
0!
#7037207150
1!
#7038636400
0!
#7040071225
1!
#7041500475
0!
#7042935163
1!
#7044364363
0!
#7048113538
1!
#7049384825
0!
#7050663313
1!
#7051936938
0!
#7053215425
1!
#7054488913
0!
#7055767400
1!
#7057040888
0!
#7058319375
1!
#7059592863
0!
#7060871350
1!
#7062144838
0!
#7063423325
1!
#7064696950
0!
#7065975438
1!
#7067248925
0!
#7068527413
1!
#7069800900
0!
#7071079388
1!
#7072352750
0!
#7073631363
1!
#7074904875
0!
#7076183338
1!
#7077456850
0!
#7078735313
1!
#7080008825
0!
#7081287300
1!
#7082560938
0!
#7083839313
1!
#7085112913
0!
#7086391425
1!
#7087664888
0!
#7088943400
1!
#7090216863
0!
#7091495375
1!
#7092768838
0!
#7094047350
1!
#7095320950
0!
#7096599325
1!
#7097872925
0!
#7099151438
1!
#7100424850
0!
#7101703413
1!
#7102976863
0!
#7104255388
1!
#7105528838
0!
#7106807363
1!
#7108080950
0!
#7109359238
1!
#7110632925
0!
#7111911375
1!
#7113184900
0!
#7114463350
1!
#7115736875
0!
#7117015325
1!
#7118288725
0!
#7119567438
1!
#7120840925
0!
#7122119413
1!
#7123392900
0!
#7124671388
1!
#7125944875
0!
#7127223363
1!
#7128496850
0!
#7129775338
1!
#7131048825
0!
#7132327313
1!
#7133600938
0!
#7134879350
1!
#7136152913
0!
#7137431325
1!
#7138704888
0!
#7139983438
1!
#7141256863
0!
#7142535413
1!
#7143808838
0!
#7145087388
1!
#7145961850
0!
#7162951600
1!
#7163016400
0!
#7165503438
1!
#7165568238
0!
#7168055413
1!
#7168120213
0!
#7170607388
1!
#7170672188
0!
#7173159363
1!
#7173224163
0!
#7175711250
1!
#7175776125
0!
#7178263325
1!
#7178328138
0!
#7180815338
1!
#7180880225
0!
#7183367313
1!
#7183432200
0!
#7185919425
1!
#7185984175
0!
#7188471400
1!
#7188536150
0!
#7191023375
1!
#7191092700
0!
#7193575350
1!
#7193642613
0!
#7196127325
1!
#7196194725
0!
#7198679438
1!
#7198746700
0!
#7201231413
1!
#7201298550
0!
#7203783388
1!
#7203850600
0!
#7206335238
1!
#7206402713
0!
#7208887375
1!
#7208954688
0!
#7211439350
1!
#7211506663
0!
#7213991325
1!
#7214058638
0!
#7216543438
1!
#7216610613
0!
#7219095413
1!
#7219162725
0!
#7221647388
1!
#7221718475
0!
#7224199363
1!
#7224269200
0!
#7226751338
1!
#7226821213
0!
#7229303200
1!
#7229373188
0!
#7231855338
1!
#7231925163
0!
#7234407313
1!
#7234477138
0!
#7236959425
1!
#7237029113
0!
#7239511400
1!
#7239581225
0!
#7242063375
1!
#7242133200
0!
#7244615350
1!
#7244685175
0!
#7247167325
1!
#7247237150
0!
#7249719438
1!
#7249789125
0!
#7252271325
1!
#7252345138
0!
#7254823313
1!
#7254895588
0!
#7257375425
1!
#7257447700
0!
#7259927400
1!
#7259999675
0!
#7262479375
1!
#7262551650
0!
#7265031350
1!
#7265103625
0!
#7267583325
1!
#7267655600
0!
#7270135438
1!
#7270207713
0!
#7272687413
1!
#7272759688
0!
#7275239388
1!
#7275311663
0!
#7277791363
1!
#7277863638
0!
#7280343213
1!
#7280415500
0!
#7282895313
1!
#7282970788
0!
#7285447425
1!
#7285522075
0!
#7287999400
1!
#7288074188
0!
#7290551375
1!
#7290626163
0!
#7293103350
1!
#7293178138
0!
#7295655250
1!
#7295730000
0!
#7298207388
1!
#7298282013
0!
#7300759288
1!
#7300834000
0!
#7303311425
1!
#7303386138
0!
#7305863400
1!
#7305938113
0!
#7308415375
1!
#7308490088
0!
#7310967350
1!
#7311045325
0!
#7313519325
1!
#7313596613
0!
#7316071438
1!
#7316148588
0!
#7318623413
1!
#7318700700
0!
#7321175388
1!
#7321252675
0!
#7323727363
1!
#7323804650
0!
#7326279213
1!
#7326359363
0!
#7328831313
1!
#7328911125
0!
#7331383425
1!
#7331463100
0!
#7333935400
1!
#7334015075
0!
#7336487375
1!
#7336567188
0!
#7339039350
1!
#7339119163
0!
#7341591325
1!
#7341671138
0!
#7344143438
1!
#7344223113
0!
#7346695413
1!
#7346775088
0!
#7349247388
1!
#7349327063
0!
#7351799363
1!
#7351879125
0!
#7354351213
1!
#7354431100
0!
#7356903313
1!
#7356986500
0!
#7359455425
1!
#7359537650
0!
#7362007400
1!
#7362089625
0!
#7364559375
1!
#7364641600
0!
#7367111350
1!
#7367193575
0!
#7369663325
1!
#7369745688
0!
#7372215438
1!
#7372297538
0!
#7374767413
1!
#7374849563
0!
#7377319388
1!
#7377401675
0!
#7379871363
1!
#7379953650
0!
#7382423275
1!
#7382505500
0!
#7384975413
1!
#7385057563
0!
#7387527388
1!
#7387612050
0!
#7390079363
1!
#7390164163
0!
#7392631338
1!
#7392716138
0!
#7395183313
1!
#7395268075
0!
#7397735425
1!
#7397820088
0!
#7400287275
1!
#7400372038
0!
#7402839413
1!
#7402924163
0!
#7405391388
1!
#7405476138
0!
#7407943363
1!
#7408028113
0!
#7410495338
1!
#7410580088
0!
#7413047313
1!
#7413132063
0!
#7415599375
1!
#7415684125
0!
#7418151388
1!
#7418238588
0!
#7420703363
1!
#7420790563
0!
#7423255338
1!
#7423342463
0!
#7425807313
1!
#7425894538
0!
#7428359363
1!
#7428446650
0!
#7430911375
1!
#7430998625
0!
#7433463350
1!
#7433550600
0!
#7436015325
1!
#7436102575
0!
#7438567438
1!
#7438654550
0!
#7441119413
1!
#7441206663
0!
#7443671388
1!
#7443758638
0!
#7446223363
1!
#7446313625
0!
#7448775338
1!
#7448865050
0!
#7451327313
1!
#7451417163
0!
#7453879350
1!
#7453969138
0!
#7456431325
1!
#7456521113
0!
#7458983438
1!
#7459073088
0!
#7461535413
1!
#7461625063
0!
#7464087388
1!
#7464177038
0!
#7466639363
1!
#7466729150
0!
#7469191338
1!
#7469281000
0!
#7471743313
1!
#7471833038
0!
#7474295413
1!
#7474385150
0!
#7476847425
1!
#7476940150
0!
#7479399400
1!
#7479491575
0!
#7481951375
1!
#7482043550
0!
#7484503350
1!
#7484595525
0!
#7487055325
1!
#7487147638
0!
#7489607438
1!
#7489699613
0!
#7492159413
1!
#7492251588
0!
#7494711388
1!
#7494803563
0!
#7497263325
1!
#7497355488
0!
#7499815338
1!
#7499907625
0!
#7502367313
1!
#7502459600
0!
#7504919425
1!
#7505011575
0!
#7507471400
1!
#7507568188
0!
#7510023375
1!
#7510118100
0!
#7512575350
1!
#7512670075
0!
#7515127325
1!
#7515222050
0!
#7517679438
1!
#7517774025
0!
#7520231413
1!
#7520326138
0!
#7522783388
1!
#7522882200
0!
#7525335238
1!
#7525432525
0!
#7527887375
1!
#7527984638
0!
#7530439350
1!
#7530536613
0!
#7532991325
1!
#7533088588
0!
#7535543375
1!
#7535640500
0!
#7538095388
1!
#7538192513
0!
#7540647363
1!
#7540744625
0!
#7543199338
1!
#7543296538
0!
#7545751313
1!
#7545848550
0!
#7548303325
1!
#7548400525
0!
#7550855238
1!
#7550956363
0!
#7553407313
1!
#7553507100
0!
#7555959425
1!
#7556059075
0!
#7558511400
1!
#7558611050
0!
#7561063375
1!
#7561163025
0!
#7563615350
1!
#7563715000
0!
#7566167325
1!
#7566267075
0!
#7568719438
1!
#7568819088
0!
#7571271325
1!
#7571371063
0!
#7573823313
1!
#7573923038
0!
#7576375425
1!
#7576475013
0!
#7578927400
1!
#7579027125
0!
#7581479375
1!
#7581583150
0!
#7584031350
1!
#7584133613
0!
#7586583325
1!
#7586685588
0!
#7589135438
1!
#7589237563
0!
#7591687413
1!
#7591789538
0!
#7594239388
1!
#7594341463
0!
#7596791363
1!
#7596893600
0!
#7599343213
1!
#7599445575
0!
#7601895313
1!
#7601997550
0!
#7604447425
1!
#7604549525
0!
#7606999400
1!
#7607101500
0!
#7609551375
1!
#7609653613
0!
#7612103350
1!
#7612209550
0!
#7614655325
1!
#7614760013
0!
#7617207438
1!
#7617311988
0!
#7619759413
1!
#7619864100
0!
#7622311388
1!
#7622416075
0!
#7624863363
1!
#7624968050
0!
#7627415338
1!
#7627520025
0!
#7629967313
1!
#7630072000
0!
#7632519425
1!
#7632624113
0!
#7635071400
1!
#7635176088
0!
#7637623375
1!
#7637728063
0!
#7640175350
1!
#7640279913
0!
#7642727325
1!
#7642834850
0!
#7645279313
1!
#7645386550
0!
#7647831313
1!
#7647938525
0!
#7650383425
1!
#7650490500
0!
#7652935400
1!
#7653042475
0!
#7655487250
1!
#7655594500
0!
#7658039388
1!
#7658146513
0!
#7660591363
1!
#7660698488
0!
#7663143338
1!
#7663250600
0!
#7665695313
1!
#7665802575
0!
#7668247425
1!
#7668354425
0!
#7670799375
1!
#7670910250
0!
#7673351263
1!
#7673460988
0!
#7675903313
1!
#7676013100
0!
#7678455425
1!
#7678565075
0!
#7681007400
1!
#7681117050
0!
#7683559375
1!
#7683669025
0!
#7686111350
1!
#7686224513
0!
#7688663325
1!
#7688775525
0!
#7691215438
1!
#7691327500
0!
#7693767413
1!
#7693879513
0!
#7696319388
1!
#7696431488
0!
#7698871363
1!
#7698983463
0!
#7701423338
1!
#7701535575
0!
#7703975313
1!
#7704087550
0!
#7706527425
1!
#7706639525
0!
#7709079400
1!
#7709191500
0!
#7711631375
1!
#7711743475
0!
#7714183350
1!
#7714295538
0!
#7716735325
1!
#7716850688
0!
#7719287313
1!
#7719401975
0!
#7721839313
1!
#7721953950
0!
#7724391425
1!
#7724506063
0!
#7726943400
1!
#7727058038
0!
#7729495375
1!
#7729610013
0!
#7732047350
1!
#7732161988
0!
#7734599325
1!
#7734713963
0!
#7737151438
1!
#7737265950
0!
#7739703413
1!
#7739817963
0!
#7742255388
1!
#7742370075
0!
#7744807363
1!
#7744922050
0!
#7747359238
1!
#7747477850
0!
#7749911375
1!
#7750028450
0!
#7752463350
1!
#7752580563
0!
#7755015325
1!
#7755132538
0!
#7757567438
1!
#7757684513
0!
#7760119413
1!
#7760236488
0!
#7762671388
1!
#7762788463
0!
#7765223363
1!
#7765340463
0!
#7767775338
1!
#7767892475
0!
#7770327313
1!
#7770444450
0!
#7772879350
1!
#7772996563
0!
#7775431250
1!
#7775548500
0!
#7777983388
1!
#7778103000
0!
#7780535363
1!
#7780654975
0!
#7783087338
1!
#7783206950
0!
#7785639313
1!
#7785759063
0!
#7788191425
1!
#7788311038
0!
#7790743375
1!
#7790862900
0!
#7793295288
1!
#7793415038
0!
#7795847425
1!
#7795967013
0!
#7798399400
1!
#7798518988
0!
#7800951250
1!
#7801070963
0!
#7803503313
1!
#7803622938
0!
#7806055425
1!
#7806178425
0!
#7808607400
1!
#7808729438
0!
#7811159375
1!
#7811281425
0!
#7813711350
1!
#7813833438
0!
#7816263200
1!
#7816385550
0!
#7818815338
1!
#7818937525
0!
#7821367313
1!
#7821489500
0!
#7823919425
1!
#7824041475
0!
#7826471400
1!
#7826593450
0!
#7829023375
1!
#7829145563
0!
#7831575350
1!
#7831697538
0!
#7834127325
1!
#7834249513
0!
#7836679438
1!
#7836804963
0!
#7839231413
1!
#7839355863
0!
#7841783388
1!
#7841908000
0!
#7844335238
1!
#7844459975
0!
#7846887375
1!
#7847011950
0!
#7849439350
1!
#7849563925
0!
#7851991325
1!
#7852116038
0!
#7854543438
1!
#7854668013
0!
#7857095413
1!
#7857219988
0!
#7859647388
1!
#7859771963
0!
#7862199363
1!
#7862323938
0!
#7864751338
1!
#7864876050
0!
#7867303200
1!
#7867432625
0!
#7869855338
1!
#7869982538
0!
#7872407313
1!
#7872534513
0!
#7874959425
1!
#7875086488
0!
#7877511400
1!
#7877638463
0!
#7880063375
1!
#7880190438
0!
#7882615350
1!
#7882747238
0!
#7885167325
1!
#7885296913
0!
#7887719438
1!
#7887848913
0!
#7890271325
1!
#7890401025
0!
#7892823313
1!
#7892953000
0!
#7895375375
1!
#7895504875
0!
#7897927388
1!
#7898057013
0!
#7900479263
1!
#7900608888
0!
#7903031400
1!
#7903161025
0!
#7905583375
1!
#7905713000
0!
#7908135350
1!
#7908264950
0!
#7910687250
1!
#7910816875
0!
#7913239388
1!
#7913371788
0!
#7915791363
1!
#7915923488
0!
#7918343213
1!
#7918475463
0!
#7920895313
1!
#7921027438
0!
#7923447425
1!
#7923579413
0!
#7925999400
1!
#7926131525
0!
#7928551375
1!
#7928683500
0!
#7931103350
1!
#7931235475
0!
#7933655325
1!
#7933787450
0!
#7936207438
1!
#7936339363
0!
#7938759413
1!
#7938891475
0!
#7941311388
1!
#7941446825
0!
#7943863363
1!
#7943997975
0!
#7946415338
1!
#7946549950
0!
#7948967313
1!
#7949101925
0!
#7951519425
1!
#7951653900
0!
#7954071400
1!
#7954206013
0!
#7956623375
1!
#7956757988
0!
#7959175350
1!
#7959309963
0!
#7961727325
1!
#7961861938
0!
#7964279313
1!
#7964413913
0!
#7966831313
1!
#7966965888
0!
#7969383425
1!
#7969518000
0!
#7971935400
1!
#7972072375
0!
#7974487375
1!
#7974624488
0!
#7977039350
1!
#7977176463
0!
#7979591325
1!
#7979728438
0!
#7982143438
1!
#7982280288
0!
#7984695413
1!
#7984832388
0!
#7987247388
1!
#7987384500
0!
#7989799363
1!
#7989936475
0!
#7992351213
1!
#7992488450
0!
#7994903313
1!
#7995040425
0!
#7997455425
1!
#7997592400
0!
#8000007400
1!
#8000144388
0!
#8002559375
1!
#8002700562
0!
#8005111350
1!
#8005250888
0!
#8007663325
1!
#8007803000
0!
#8010215437
1!
#8010354850
0!
#8012767413
1!
#8012906875
0!
#8015319388
1!
#8015458875
0!
#8017871362
1!
#8018010887
0!
#8020423338
1!
#8020563000
0!
#8022975313
1!
#8023114975
0!
#8025527425
1!
#8025666950
0!
#8028079400
1!
#8028218925
0!
#8030631250
1!
#8030770875
0!
#8033183387
1!
#8033327187
0!
#8035735363
1!
#8035877375
0!
#8038287213
1!
#8038429488
0!
#8040839312
1!
#8040981463
0!
#8043391425
1!
#8043533438
0!
#8045943400
1!
#8046087937
0!
#8048495375
1!
#8048639913
0!
#8051047350
1!
#8051191888
0!
#8053599325
1!
#8053743862
0!
#8056151438
1!
#8056295913
0!
#8058703413
1!
#8058847925
0!
#8061255387
1!
#8061399900
0!
#8063807363
1!
#8063951875
0!
#8066359238
1!
#8066503988
0!
#8068911375
1!
#8069055963
0!
#8071463350
1!
#8071607938
0!
#8074015325
1!
#8074159913
0!
#8076567438
1!
#8076715125
0!
#8079119413
1!
#8079266325
0!
#8081671388
1!
#8081818462
0!
#8084223362
1!
#8084370438
0!
#8086775338
1!
#8086922413
0!
#8089327313
1!
#8089474387
0!
#8091879350
1!
#8092026363
0!
#8094431325
1!
#8094578475
0!
#8096983438
1!
#8097130450
0!
#8099535413
1!
#8099682425
0!
#8102087387
1!
#8102234400
0!
#8104639363
1!
#8104786375
0!
#8107191338
1!
#8107341463
0!
#8109743312
1!
#8109892850
0!
#8112295413
1!
#8112444963
0!
#8114847425
1!
#8114996938
0!
#8117399400
1!
#8117548913
0!
#8119951375
1!
#8120100888
0!
#8122503350
1!
#8122652863
0!
#8125055325
1!
#8125204975
0!
#8127607438
1!
#8127756950
0!
#8130159412
1!
#8130308925
0!
#8132711388
1!
#8132860900
0!
#8135263325
1!
#8135412750
0!
#8137815337
1!
#8137968300
0!
#8140367313
1!
#8140519450
0!
#8142919425
1!
#8143071425
0!
#8145471400
1!
#8145623400
0!
#8148023375
1!
#8148175375
0!
#8150575263
1!
#8150727263
0!
#8153127400
1!
#8153279275
0!
#8155679375
1!
#8155831338
0!
#8158231350
1!
#8158383450
0!
#8160783325
1!
#8160935425
0!
#8163335375
1!
#8163487400
0!
#8165887263
1!
#8166043475
0!
#8168439313
1!
#8168593938
0!
#8170991425
1!
#8171145913
0!
#8173543400
1!
#8173697887
0!
